{
  "Actor": {
    "types": ["character"],
    "templates": {
      "base": {
        "biography": {
          "name": "",
          "player": "",
          "archetype": "",
          "race": "",
          "signes": ""
        },
        "destiny" : 1,
        "xp" : 0,
        "jokers": 1,
        "strengthsDisabilitiesTalents": "",
        "equipments" : "",
        "attributes": {
          "strength": {
            "key": "FOR",
            "value": 4,
            "progression": 4
          },
          "endurance": {
            "key": "END",
            "value": 4,
            "progression": 4
          },
          "dexterity": {
            "key": "DEX",
            "value": 4,
            "progression": 4
          },
          "speed": {
            "key": "RAP",
            "value": 4,
            "progression": 4
          },
          "perception": {
            "key": "PER",
            "value": 4,
            "progression": 4
          },
          "will": {
            "key": "VOL",
            "value": 4,
            "progression": 4
          },
          "intelligence": {
            "key": "INT",
            "value": 4,
            "progression": 4
          },
          "charisma": {
            "key": "CHA",
            "value": 4,
            "progression": 4
          }
        },
        "skills": {
          "CombatArme": {"name":"Combat armé", "attributes":"DEX", "rank":0, "mod":0},
          "CombatTrait": {"name":"Arme de trait", "attributes":"DEX", "rank":0, "mod":0},          
          "Esquive": {"name":"Esquive", "attributes":"RAP", "rank":0, "mod":0},
          "Lancer": {"name":"Lancer", "attributes":"DEX", "rank":0, "mod":0},
          "MainsNues": {"name":"Mains nues", "attributes":"DEX", "rank":0, "mod":0},
          "Acrobatie": {"name":"Acrobatie", "attributes":"DEX", "rank":0, "mod":0},
          "Art": {"name":"Art", "attributes":"CHA", "rank":0, "mod":0},
          "Artisanat": {"name":"Artisanat", "attributes":"INT", "rank":0, "mod":0},
          "Bureaucratie": {"name":"Bureaucratie", "attributes":"INT", "rank":0, "mod":0},
          "Chirurgie": {"name":"Chirurgie", "attributes":"INT", "rank":0, "mod":0},
          "Commandement": {"name":"Commandement", "attributes":"CHA", "rank":0, "mod":0},
          "Crochetage": {"name":"Crochetage", "attributes":"DEX", "rank":0, "mod":0},
          "Deguisement": {"name":"Déguisement", "attributes":"CHA", "rank":0, "mod":0},
          "Determination": {"name":"Détermination", "attributes":"VOL", "rank":0, "mod":0},
          "Dressage": {"name":"Dressage", "attributes":"CHA/VOL", "rank":0, "mod":0},
          "Empathie": {"name":"Empathie", "attributes":"CHA", "rank":0, "mod":0},
          "Equitation": {"name":"Equitation", "attributes":"DEX", "rank":0, "mod":0},
          "Erudition": {"name":"Erudition", "attributes":"INT", "rank":0, "mod":0},
          "Etiquette": {"name":"Etiquette", "attributes":"CHA", "rank":0, "mod":0},
          "Furtivite": {"name":"Furtivité", "attributes":"DEX", "rank":0, "mod":0},
          "Ingenierie": {"name":"Ingenierie", "attributes":"INT", "rank":0, "mod":0},
          "Investigation": {"name":"Investigation", "attributes":"PER", "rank":0, "mod":0},
          "Jeux": {"name":"Jeux", "attributes":"INT/CHA", "rank":0, "mod":0},
          "Langues": {"name":"Langues", "attributes":"CHA", "rank":0, "mod":0},
          "Marchandage": {"name":"Marchandage", "attributes":"CHA", "rank":0, "mod":0},
          "Navigation": {"name":"Navigation", "attributes":"PER", "rank":0, "mod":0},
          "Orientation": {"name":"Orientation", "attributes":"PER", "rank":0, "mod":0},
          "Persuasion": {"name":"Persuasion", "attributes":"CHA", "rank":0, "mod":0},
          "PremiersSoins": {"name":"Premiers soins", "attributes":"INT", "rank":0, "mod":0},
          "Religion": {"name":"Religion", "attributes":"CHA", "rank":0, "mod":0},
          "Spectacle": {"name":"Spectacle", "attributes":"CHA/DEX", "rank":0, "mod":0},
          "Strategie": {"name":"Strategie", "attributes":"INT", "rank":0, "mod":0},
          "Survie": {"name":"Survie", "attributes":"PER", "rank":0, "mod":0},
          "Torture": {"name":"Torture", "attributes":"VOL", "rank":0, "mod":0},
          "ToursDeMain": {"name":"Tours de main", "attributes":"DEX/RAP", "rank":0, "mod":0},
          "Vigilance": {"name":"Vigilance", "attributes":"PER", "rank":0, "mod":0}
        },
        "combat" : {
          "actions" : "2+0",
          "initiative" : 0,
          "naturelReflex" : 0,
          "weaponsCac" : {
            "el1": {
              "name" : "",
              "damage" : 1,
              "strenght" : 1,
              "type" : "",
              "critic": "",
              "parade" : "1/2",
              "solidity" : 1,
              "notes" : ""
            },
            "el2": {
              "name" : "",
              "damage" : 1,
              "strenght" : 1,
              "type" : "",
              "critic": "",
              "parade" : "1/2",
              "solidity" : 1,
              "notes" : ""
            },
            "el3": {
              "name" : "",
              "damage" : 1,
              "strenght" : 1,
              "type" : "",
              "critic": "",
              "parade" : "1/2",
              "solidity" : 1,
              "notes" : ""
            },
            "el4": {
              "name" : "",
              "damage" : 1,
              "strenght" : 1,
              "type" : "",
              "critic": "",
              "parade" : "1/2",
              "solidity" : 1,
              "notes" : ""
            }
          },
          "weaponsDistance" : {
            "el1": {
              "name" : "",
              "damage" : 1,
              "strenght" : 1,
              "type" : "",
              "critic": "",
              "cadence" : "",
              "reach" : "",
              "solidity" : 1,
              "notes" : ""
            },
            "el2": {
              "name" : "",
              "damage" : 1,
              "strenght" : 1,
              "type" : "",
              "critic": "",
              "cadence" : "",
              "reach" : "",
              "solidity" : 1,
              "notes" : ""
            },
            "el3": {
              "name" : "",
              "damage" : 1,
              "strenght" : 1,
              "type" : "",
              "critic": "",
              "cadence" : "",
              "reach" : "",
              "solidity" : 1,
              "notes" : ""
            }
          },
		  "shield" : {
              "name" : "",
              "parC" : 0,
              "parD" : 0,
              "hidden" : "",
              "damage" : 1,
              "strenght" : 1,
              "type" : "",
              "critic": "",
              "solidity" : 1,
              "notes" : ""
		  }
        },
        "resistance": {
          "natural": 0,
          "armor": 0,
          "heavyInjuryBoundary": 4,
          "clutter" : 0
        },
        "health": {
          "normalMax": 4,
          "injuredMax": 4,
          "handicappedMax": 4,
          "inabilityMax" : 2,
          "unconsciousMax" : 1,
          "normalInjure": 0,
          "injuredInjure": 0,
          "handicappedInjure": 0,
          "inabilityInjure" : 0,
          "unconsciousInjure" : 0,
          "normalFatigue": 0,
          "injuredFatigue": 0,
          "handicappedFatigue": 0,
          "inabilityFatigue" : 0,
          "unconsciousFatigue" : 0
        }
      }
    },
    "character": {
      "templates": ["base"]
    }
  },
  "Item": {
    "types": ["weapon", "item", "feature"],
    "templates": {
      "base": {
        "description": ""
      }
    },
    "weapon": {
      "templates": ["base"],
      "quantity": 1,
      "damage" : "7",
      "strenght": "F",
      "damageType": "M",
      "critic" : "-",
      "parade" : "6",
      "weight" : "4-3",
      "price" : 2
    },
    "item": {
      "templates": ["base"],
      "quantity": 1,
      "weight": 0,
      "formula": "d20 + @str.mod + ceil(@lvl / 2)"
    },
    "feature": {
      "templates": ["base"]
    }
  }
}
